PSTAT 131 Final Project
…
collect_metrics(tune_res_random_for) %>% arrange(-mean)

## # A tibble: 125 x 9
##     mtry trees min_n .metric .estimator  mean     n std_err .config             
##    <int> <int> <int> <chr>   <chr>      <dbl> <int>   <dbl> <chr>               
##  1     7    64   150 roc_auc binary     0.805    10 0.00545 Preprocessor1_Model~
##  2     4   112   120 roc_auc binary     0.805    10 0.00541 Preprocessor1_Model~
##  3     4   128    90 roc_auc binary     0.805    10 0.00530 Preprocessor1_Model~
##  4     5   112   150 roc_auc binary     0.805    10 0.00537 Preprocessor1_Model~
##  5     4    64   150 roc_auc binary     0.805    10 0.00519 Preprocessor1_Model~
##  6     4    80   150 roc_auc binary     0.805    10 0.00533 Preprocessor1_Model~
##  7     4   112    60 roc_auc binary     0.805    10 0.00556 Preprocessor1_Model~
##  8     5    64   150 roc_auc binary     0.805    10 0.00534 Preprocessor1_Model~
##  9     5    96   150 roc_auc binary     0.805    10 0.00529 Preprocessor1_Model~
## 10     4   128   150 roc_auc binary     0.805    10 0.00544 Preprocessor1_Model~
## # ... with 115 more rows
…
